<?xml version="1.0" encoding="utf-8"?>
<!-- Generator: Adobe Illustrator 23.0.2, SVG Export Plug-In . SVG Version: 6.00 Build 0)  -->
<svg version="1.1" id="Capa_1" xmlns="http://www.w3.org/2000/svg" xmlns:xlink="http://www.w3.org/1999/xlink" x="0px" y="0px"
	 viewBox="0 0 26 16" style="enable-background:new 0 0 26 16;" xml:space="preserve">
<style type="text/css">
	.st0{fill-rule:evenodd;clip-rule:evenodd;fill:#9A9FBF;}
	.st1{fill:#9A9FBF;}
</style>
<g>
	<g>
		<g>
			<path class="st0" d="M1,5C0.4,5,0,5.4,0,5.9v4.3C0,10.6,0.4,11,1,11c0.6,0,1-0.4,1-0.9V5.9C2,5.4,1.6,5,1,5z"/>
		</g>
	</g>
</g>
<g id="Capa_3">
	<path class="st1" d="M11,11L11,11v2.4l-5-2.9v-5l5-2.9V14l2-1c0-1.9,0-11.4,0-11.4c0-1-0.4-1.6-1.1-1.6c-0.3,0-0.6,0.1-1,0.3L4,4.3
		v7.3l6.9,4c0.4,0.2,0.7,0.3,1,0.3c0.7,0,1.1-0.6,1.1-1.6c0,0,0-1.5,0-3.4c0,0,0,0,0,0H11z"/>
</g>
<g>
	<path class="st0" d="M22.4,16c2.3-2.1,3.6-4.9,3.6-8c0-3.1-1.4-5.9-3.6-8l-1.1,1.1c2,1.8,3.2,4.2,3.2,6.9c0,2.7-1.3,5.1-3.2,6.9
		L22.4,16z"/>
	<path class="st0" d="M19.5,13.8c1.8-1.5,2.8-3.5,2.8-5.8c0-2.2-1.1-4.3-2.8-5.8l-0.9,1.1C20,4.6,20.9,6.2,20.9,8
		c0,1.8-0.9,3.5-2.4,4.7L19.5,13.8z"/>
	<path class="st0" d="M16.8,11.4c1.1-0.8,1.8-2.1,1.8-3.4c0-1.4-0.7-2.6-1.9-3.5L16,5.8c0.7,0.5,1.2,1.3,1.2,2.2
		c0,1-0.3,1.8-1.1,2.3L16.8,11.4z"/>
</g>
</svg>
