<?xml version="1.0" encoding="utf-8"?>
<!-- Generator: Adobe Illustrator 24.1.0, SVG Export Plug-In . SVG Version: 6.00 Build 0)  -->
<svg version="1.1" id="Capa_1" xmlns="http://www.w3.org/2000/svg" xmlns:xlink="http://www.w3.org/1999/xlink" x="0px" y="0px"
	 viewBox="0 0 90 90" style="enable-background:new 0 0 90 90;" xml:space="preserve">
<style type="text/css">
	.st0{fill:#FFFFFF;}
</style>
<path class="st0" d="M81.6,51l7.7-2.2c0.3-3.6,0.2-7.1-0.3-10.7l-7.9-1.7c-0.4-1.5-0.8-3.1-1.4-4.5l5.6-5.8
	c-1.5-3.2-3.4-6.3-5.7-9.1L72,19.6c-1.1-1.2-2.2-2.2-3.5-3.3l1.9-7.8c-2.9-2-6.1-3.7-9.4-5l-5.4,6c-1.1-0.3-2.3-0.6-3.4-0.9L51,8.4
	l-2.2-7.8C45.3,0.4,41.7,0.5,38.2,1l-1.7,7.9c-1.5,0.4-3.1,0.8-4.5,1.4l-5.8-5.6c-3.2,1.5-6.3,3.4-9.1,5.7l2.5,7.7
	c-1.2,1.1-2.2,2.2-3.2,3.5l-7.8-2c-2,2.9-3.7,6.1-5,9.4l6,5.4c-0.3,1.1-0.6,2.3-0.9,3.4c-0.1,0.4-0.1,0.8-0.2,1.2l-7.8,2.2
	C0.4,44.7,0.5,48.3,1,51.8l7.9,1.7c0.4,1.5,0.8,3.1,1.4,4.6l-5.6,5.8c1.5,3.2,3.4,6.3,5.7,9.1l7.6-2.5c1.1,1.2,2.2,2.2,3.5,3.2
	l-1.9,7.8c2.9,2,6.1,3.7,9.4,5l5.4-5.9c1.1,0.3,2.3,0.6,3.4,0.9c0.4,0.1,0.8,0.1,1.2,0.2l2.2,7.7c3.5,0.3,7.1,0.2,10.7-0.3l1.7-7.9
	c1.5-0.4,3.1-0.8,4.5-1.4l5.8,5.6c3.2-1.5,6.3-3.4,9.1-5.7L70.4,72c1.2-1.1,2.2-2.2,3.2-3.5l7.8,1.9c2-2.9,3.7-6.1,5-9.4l-5.9-5.4
	c0.3-1.1,0.6-2.3,0.9-3.4C81.5,51.8,81.5,51.5,81.6,51z M72.1,50.4c-3,15-17.6,24.7-32.6,21.7c-15-3-24.7-17.6-21.7-32.6
	s17.6-24.7,32.6-21.7c0,0,0,0,0,0C65.4,20.8,75.1,35.4,72.1,50.4C72.1,50.4,72.1,50.4,72.1,50.4z"/>
<circle class="st0" cx="45" cy="45" r="8.5"/>
</svg>
